simulation/qsim/LogicalStep_Lab4.msim.vcd
$comment
	File created using the following command:
		vcd file LogicalStep_Lab4.msim.vcd -direction
$end
$date
	Mon Mar 27 16:55:13 2023
$end
$version
	ModelSim Version 10.4b
$end
$timescale
	1ps
$end

$scope module LogicalStep_Lab4_top_vlg_vec_tst $end
$var reg 1 ! clkin_50 $end
$var reg 4 " pb_n [3:0] $end
$var reg 1 # rst_n $end
$var reg 8 $ sw [7:0] $end
$var wire 1 % blink_signal $end
$var wire 1 & EW_ambr $end
$var wire 1 ' EW_grn $end
$var wire 1 ( EW_red $end
$var wire 1 ) leds [7] $end
$var wire 1 * leds [6] $end
$var wire 1 + leds [5] $end
$var wire 1 , leds [4] $end
$var wire 1 - leds [3] $end
$var wire 1 . leds [2] $end
$var wire 1 / leds [1] $end
$var wire 1 0 leds [0] $end
$var wire 1 1 NS_ambr $end
$var wire 1 2 NS_grn $end
$var wire 1 3 NS_red $end
$var wire 1 4 seg7_char1 $end
$var wire 1 5 seg7_char2 $end
$var wire 1 6 seg7_data [6] $end
$var wire 1 7 seg7_data [5] $end
$var wire 1 8 seg7_data [4] $end
$var wire 1 9 seg7_data [3] $end
$var wire 1 : seg7_data [2] $end
$var wire 1 ; seg7_data [1] $end
$var wire 1 < seg7_data [0] $end
$var wire 1 = sm_clk_enable $end

$scope module i1 $end
$var wire 1 > gnd $end
$var wire 1 ? vcc $end
$var wire 1 @ unknown $end
$var tri1 1 A devclrn $end
$var tri1 1 B devpor $end
$var tri1 1 C devoe $end
$var wire 1 D rst_n~input_o $end
$var wire 1 E sw[0]~input_o $end
$var wire 1 F sw[1]~input_o $end
$var wire 1 G sw[2]~input_o $end
$var wire 1 H sw[3]~input_o $end
$var wire 1 I sw[4]~input_o $end
$var wire 1 J sw[5]~input_o $end
$var wire 1 K sw[6]~input_o $end
$var wire 1 L sw[7]~input_o $end
$var wire 1 M ~QUARTUS_CREATED_GND~I_combout $end
$var wire 1 N ~QUARTUS_CREATED_UNVM~~busy $end
$var wire 1 O ~ALTERA_TMS~~ibuf_o $end
$var wire 1 P ~ALTERA_TCK~~ibuf_o $end
$var wire 1 Q ~ALTERA_TDI~~ibuf_o $end
$var wire 1 R ~QUARTUS_CREATED_ADC1~~eoc $end
$var wire 1 S clkin_50~input_o $end
$var wire 1 T clkin_50~inputclkctrl_outclk $end
$var wire 1 U pb_n[3]~input_o $end
$var wire 1 V pb_n[2]~input_o $end
$var wire 1 W pb_n[0]~input_o $end
$var wire 1 X INST6|sreg~1_combout $end
$var wire 1 Y INST6|sreg~0_combout $end
$var wire 1 Z INST8|hreg~0_combout $end
$var wire 1 [ INST8|hreg~q $end
$var wire 1 \ pb_n[1]~input_o $end
$var wire 1 ] INST5|sreg~1_combout $end
$var wire 1 ^ INST5|sreg~0_combout $end
$var wire 1 _ INST7|hreg~0_combout $end
$var wire 1 ` INST7|hreg~q $end
$var wire 1 a INST3|clk_divider:counter[0]~1_combout $end
$var wire 1 b INST3|clk_divider:counter[0]~q $end
$var wire 1 c INST3|clk_divider:counter[0]~2 $end
$var wire 1 d INST3|clk_divider:counter[1]~1_combout $end
$var wire 1 e INST3|clk_divider:counter[1]~q $end
$var wire 1 f INST3|clk_divider:counter[1]~2 $end
$var wire 1 g INST3|clk_divider:counter[2]~1_combout $end
$var wire 1 h INST3|clk_divider:counter[2]~q $end
$var wire 1 i INST3|clk_divider:counter[2]~2 $end
$var wire 1 j INST3|clk_divider:counter[3]~1_combout $end
$var wire 1 k INST3|clk_divider:counter[3]~q $end
$var wire 1 l INST3|clk_divider:counter[3]~2 $end
$var wire 1 m INST3|clk_divider:counter[4]~1_combout $end
$var wire 1 n INST3|clk_divider:counter[4]~q $end
$var wire 1 o INST3|clk_reg_extend~0_combout $end
$var wire 1 p INST3|clk_reg_extend~1_combout $end
$var wire 1 q INST3|sm_clken~combout $end
$var wire 1 r INST4|next_state.S7~q $end
$var wire 1 s INST4|current_state~64_combout $end
$var wire 1 t INST4|current_state.S7~q $end
$var wire 1 u INST4|next_state.S8~q $end
$var wire 1 v INST4|current_state~61_combout $end
$var wire 1 w INST4|current_state.S8~q $end
$var wire 1 x INST4|next_state~21_combout $end
$var wire 1 y INST4|next_state.S9~q $end
$var wire 1 z INST4|current_state~63_combout $end
$var wire 1 { INST4|current_state.S9~q $end
$var wire 1 | INST4|next_state~19_combout $end
$var wire 1 } INST4|next_state.S10~q $end
$var wire 1 ~ INST4|current_state~54_combout $end
$var wire 1 !! INST4|current_state.S10~q $end
$var wire 1 "! INST4|next_state.S11~q $end
$var wire 1 #! INST4|current_state~55_combout $end
$var wire 1 $! INST4|current_state.S11~q $end
$var wire 1 %! INST4|next_state.S12~q $end
$var wire 1 &! INST4|current_state~56_combout $end
$var wire 1 '! INST4|current_state.S12~q $end
$var wire 1 (! INST4|next_state.S13~q $end
$var wire 1 )! INST4|current_state~57_combout $end
$var wire 1 *! INST4|current_state.S13~q $end
$var wire 1 +! INST4|WideOr7~0_combout $end
$var wire 1 ,! INST4|Selector1~0_combout $end
$var wire 1 -! INST4|next_state.S14~q $end
$var wire 1 .! INST4|current_state~59_combout $end
$var wire 1 /! INST4|current_state.S14~q $end
$var wire 1 0! INST4|next_state.S15~q $end
$var wire 1 1! INST4|current_state~65_combout $end
$var wire 1 2! INST4|current_state.S15~q $end
$var wire 1 3! INST4|next_state.S0~0_combout $end
$var wire 1 4! INST4|next_state.S0~q $end
$var wire 1 5! INST4|current_state~60_combout $end
$var wire 1 6! INST4|current_state.S0~q $end
$var wire 1 7! INST4|next_state~20_combout $end
$var wire 1 8! INST4|next_state.S1~q $end
$var wire 1 9! INST4|current_state~62_combout $end
$var wire 1 :! INST4|current_state.S1~q $end
$var wire 1 ;! INST4|next_state~18_combout $end
$var wire 1 <! INST4|next_state.S2~q $end
$var wire 1 =! INST4|current_state~50_combout $end
$var wire 1 >! INST4|current_state.S2~q $end
$var wire 1 ?! INST4|next_state.S3~q $end
$var wire 1 @! INST4|current_state~51_combout $end
$var wire 1 A! INST4|current_state.S3~q $end
$var wire 1 B! INST4|next_state.S4~q $end
$var wire 1 C! INST4|current_state~52_combout $end
$var wire 1 D! INST4|current_state.S4~q $end
$var wire 1 E! INST4|next_state.S5~q $end
$var wire 1 F! INST4|current_state~53_combout $end
$var wire 1 G! INST4|current_state.S5~q $end
$var wire 1 H! INST4|Selector2~2_combout $end
$var wire 1 I! INST4|Selector0~0_combout $end
$var wire 1 J! INST4|next_state.S6~q $end
$var wire 1 K! INST4|current_state~58_combout $end
$var wire 1 L! INST4|current_state.S6~q $end
$var wire 1 M! INST4|NS_light~0_combout $end
$var wire 1 N! INST4|EW_light~0_combout $end
$var wire 1 O! INST1|clk_proc:COUNT[0]~0_combout $end
$var wire 1 P! INST1|clk_proc:COUNT[0]~q $end
$var wire 1 Q! INST1|clk_proc:COUNT[1]~1_combout $end
$var wire 1 R! INST1|clk_proc:COUNT[1]~q $end
$var wire 1 S! INST1|clk_proc:COUNT[1]~2 $end
$var wire 1 T! INST1|clk_proc:COUNT[2]~1_combout $end
$var wire 1 U! INST1|clk_proc:COUNT[2]~q $end
$var wire 1 V! INST1|clk_proc:COUNT[2]~2 $end
$var wire 1 W! INST1|clk_proc:COUNT[3]~1_combout $end
$var wire 1 X! INST1|clk_proc:COUNT[3]~q $end
$var wire 1 Y! INST1|clk_proc:COUNT[3]~2 $end
$var wire 1 Z! INST1|clk_proc:COUNT[4]~1_combout $end
$var wire 1 [! INST1|clk_proc:COUNT[4]~q $end
$var wire 1 \! INST1|clk_proc:COUNT[4]~2 $end
$var wire 1 ]! INST1|clk_proc:COUNT[5]~1_combout $end
$var wire 1 ^! INST1|clk_proc:COUNT[5]~q $end
$var wire 1 _! INST1|clk_proc:COUNT[5]~2 $end
$var wire 1 `! INST1|clk_proc:COUNT[6]~1_combout $end
$var wire 1 a! INST1|clk_proc:COUNT[6]~q $end
$var wire 1 b! INST1|clk_proc:COUNT[6]~2 $end
$var wire 1 c! INST1|clk_proc:COUNT[7]~1_combout $end
$var wire 1 d! INST1|clk_proc:COUNT[7]~q $end
$var wire 1 e! INST1|clk_proc:COUNT[7]~2 $end
$var wire 1 f! INST1|clk_proc:COUNT[8]~1_combout $end
$var wire 1 g! INST1|clk_proc:COUNT[8]~q $end
$var wire 1 h! INST1|clk_proc:COUNT[8]~2 $end
$var wire 1 i! INST1|clk_proc:COUNT[9]~1_combout $end
$var wire 1 j! INST1|clk_proc:COUNT[9]~q $end
$var wire 1 k! INST1|clk_proc:COUNT[9]~2 $end
$var wire 1 l! INST1|clk_proc:COUNT[10]~1_combout $end
$var wire 1 m! INST1|clk_proc:COUNT[10]~q $end
$var wire 1 n! INST1|DOUT_TEMP[6]~0_combout $end
$var wire 1 o! INST4|WideOr5~combout $end
$var wire 1 p! INST4|NS_cross~q $end
$var wire 1 q! INST4|WideOr6~0_combout $end
$var wire 1 r! INST4|EW_cross~q $end
$var wire 1 s! INST4|WideOr9~0_combout $end
$var wire 1 t! INST4|WideOr8~0_combout $end
$var wire 1 u! INST4|WideOr9~combout $end
$var wire 1 v! INST4|WideOr8~1_combout $end
$var wire 1 w! INST4|WideOr8~combout $end
$var wire 1 x! INST4|WideOr3~0_combout $end
$var wire 1 y! INST4|WideOr7~combout $end
$var wire 1 z! INST4|WideOr3~combout $end
$var wire 1 {! INST4|states[3]~3_combout $end
$var wire 1 |! INST4|NS_light[0]~1_combout $end
$var wire 1 }! INST1|DOUT[0]~0_combout $end
$var wire 1 ~! INST3|blink_sig~0_combout $end
$var wire 1 !" INST3|blink_sig~q $end
$var wire 1 "" INST4|Selector2~3_combout $end
$var wire 1 #" INST4|Selector3~2_combout $end
$var wire 1 $" INST1|DOUT[3]~1_combout $end
$var wire 1 %" INST4|NS_red~0_combout $end
$var wire 1 &" INST4|NS_red~q $end
$var wire 1 '" INST4|NS_ambr~q $end
$var wire 1 (" INST4|NS_grn~q $end
$var wire 1 )" INST4|EW_red~q $end
$var wire 1 *" INST4|EW_ambr~q $end
$var wire 1 +" INST4|EW_grn~q $end
$var wire 1 ," INST4|states [3] $end
$var wire 1 -" INST4|states [2] $end
$var wire 1 ." INST4|states [1] $end
$var wire 1 /" INST4|states [0] $end
$var wire 1 0" INST4|NS_light [6] $end
$var wire 1 1" INST4|NS_light [5] $end
$var wire 1 2" INST4|NS_light [4] $end
$var wire 1 3" INST4|NS_light [3] $end
$var wire 1 4" INST4|NS_light [2] $end
$var wire 1 5" INST4|NS_light [1] $end
$var wire 1 6" INST4|NS_light [0] $end
$var wire 1 7" INST3|clk_reg_extend [1] $end
$var wire 1 8" INST3|clk_reg_extend [0] $end
$var wire 1 9" INST4|EW_light [6] $end
$var wire 1 :" INST4|EW_light [5] $end
$var wire 1 ;" INST4|EW_light [4] $end
$var wire 1 <" INST4|EW_light [3] $end
$var wire 1 =" INST4|EW_light [2] $end
$var wire 1 >" INST4|EW_light [1] $end
$var wire 1 ?" INST4|EW_light [0] $end
$var wire 1 @" INST6|sreg [1] $end
$var wire 1 A" INST6|sreg [0] $end
$var wire 1 B" INST5|sreg [1] $end
$var wire 1 C" INST5|sreg [0] $end
$upscope $end
$upscope $end
$enddefinitions $end
#0
$dumpvars
0!
b111 "
x#
bx $
0%
0&
0'
0(
00
0/
0.
0-
0,
0+
0*
0)
01
02
03
14
05
1<
0;
0:
09
08
07
06
0=
0>
1?
x@
1A
1B
1C
xD
xE
xF
xG
xH
xI
xJ
xK
xL
0M
zN
zO
zP
zQ
zR
0S
0T
0U
1V
1W
0X
0Y
0Z
0[
1\
0]
0^
0_
0`
1a
0b
0c
0d
0e
1f
0g
0h
0i
0j
0k
1l
0m
0n
0o
0p
0q
0r
0s
0t
0u
0v
0w
0x
0y
0z
0{
0|
0}
0~
0!!
0"!
0#!
0$!
0%!
0&!
0'!
0(!
0)!
0*!
1+!
0,!
0-!
0.!
0/!
00!
01!
02!
13!
04!
05!
06!
17!
08!
09!
0:!
0;!
0<!
0=!
0>!
0?!
0@!
0A!
0B!
0C!
0D!
0E!
0F!
0G!
0H!
0I!
0J!
0K!
0L!
0M!
0N!
1O!
0P!
0Q!
0R!
0S!
0T!
0U!
1V!
0W!
0X!
0Y!
0Z!
0[!
1\!
0]!
0^!
0_!
0`!
0a!
1b!
0c!
0d!
0e!
0f!
0g!
1h!
0i!
0j!
0k!
0l!
0m!
0n!
0o!
0p!
0q!
0r!
0s!
0t!
0u!
0v!
0w!
0x!
0y!
1z!
0{!
0|!
0}!
0~!
0!"
0""
0#"
0$"
0%"
0&"
0'"
0("
0)"
0*"
0+"
0/"
0."
0-"
0,"
06"
z5"
z4"
03"
z2"
z1"
00"
08"
07"
z?"
z>"
z="
0<"
z;"
z:"
09"
0A"
0@"
0C"
0B"
$end
#10000
1!
1S
1T
1P!
18!
14!
1)"
1(
1Q!
0O!
#20000
0!
0S
0T
#30000
1!
1S
1T
1R!
0P!
1O!
#40000
0!
0S
0T
#50000
1!
1S
1T
1P!
1S!
0Q!
0O!
1T!
#60000
0!
0S
0T
#70000
1!
1S
1T
1U!
0R!
0P!
0V!
0S!
0T!
1O!
1V!
1W!
1T!
0W!
#80000
0!
0S
0T
#90000
1!
1S
1T
1P!
1Q!
0O!
#100000
0!
0S
0T
#110000
1!
1S
1T
1R!
0P!
1O!
#120000
0!
0S
0T
#130000
1!
1S
1T
1P!
1S!
0Q!
0O!
0V!
0T!
1W!
#140000
0!
0S
0T
#150000
1!
1S
1T
1X!
0U!
0R!
0P!
1Y!
1V!
0S!
0W!
1T!
1O!
0Y!
1Z!
1W!
0T!
0Z!
#160000
0!
0S
0T
#170000
1!
1S
1T
1P!
1Q!
0O!
#180000
0!
0S
0T
#190000
1!
1S
1T
1R!
0P!
1O!
#200000
0!
0S
0T
#210000
1!
1S
1T
1P!
1S!
0Q!
0O!
1T!
#220000
0!
0S
0T
#230000
1!
1S
1T
1U!
0R!
0P!
0V!
0S!
0T!
1O!
1Y!
1V!
0W!
1T!
0Y!
1Z!
1W!
0Z!
#240000
0!
0S
0T
#250000
1!
1S
1T
1P!
1Q!
0O!
#260000
0!
0S
0T
#270000
1!
1S
1T
1R!
0P!
1O!
#280000
0!
0S
0T
#290000
1!
1S
1T
1P!
1S!
0Q!
0O!
0V!
0T!
1Y!
0W!
1Z!
#300000
0!
0S
0T
#310000
1!
1S
1T
1[!
0X!
0U!
0R!
0P!
0\!
0Y!
1V!
0S!
0Z!
1W!
1T!
1O!
1\!
1]!
1Z!
0W!
0T!
0]!
#320000
b1111 "
0!
0S
1U
0T
#330000
1!
1S
1T
1P!
1b
1c
1Q!
0O!
0a
1d
#340000
0!
0S
0T
#350000
1!
1S
1T
1R!
0P!
1e
0b
0f
0c
1O!
0d
1a
1f
1g
1d
0g
#360000
0!
0S
0T
#370000
1!
1S
1T
1P!
1b
1S!
1c
0Q!
0O!
0a
0f
1T!
0d
1g
#380000
0!
0S
0T
#390000
1!
1S
1T
1U!
0R!
0P!
1h
0e
0b
0V!
0S!
1i
1f
0c
0T!
1O!
1~!
0g
1d
1a
1V!
0i
1W!
1T!
1j
1g
0d
0W!
0j
#400000
0!
0S
0T
#410000
1!
1S
1T
1P!
1b
1!"
1%
1c
1Q!
0O!
0a
1""
1d
#420000
0!
0S
0T
#430000
1!
1S
1T
13"
1R!
0P!
1e
0b
1("
12
0f
0c
1O!
0d
1a
1i
1f
0g
1d
0i
1j
1g
0j
#440000
0!
0S
0T
#450000
1!
1S
1T
1P!
1b
1S!
1c
0Q!
0O!
0a
0V!
0f
0T!
0d
1i
1W!
0g
1j
#460000
0!
0S
0T
#470000
1!
1S
1T
1X!
0U!
0R!
0P!
1k
0h
0e
0b
1Y!
1V!
0S!
0l
0i
1f
0c
0W!
1T!
1O!
0j
0~!
1g
1d
1a
0\!
0Y!
1l
0Z!
1W!
0T!
1m
1j
0g
0d
1\!
1]!
1Z!
0m
0]!
#480000
0!
0S
0T
#490000
1!
1S
1T
1P!
1b
0!"
0%
1c
1Q!
0O!
0a
0""
1d
#500000
0!
0S
0T
#510000
1!
1S
1T
03"
1R!
0P!
1e
0b
0("
02
0f
0c
1O!
0d
1a
1f
1g
1d
0g
#520000
0!
0S
0T
#530000
1!
1S
1T
1P!
1b
1S!
1c
0Q!
0O!
0a
0f
1T!
0d
1g
#540000
0!
0S
0T
#550000
1!
1S
1T
1U!
0R!
0P!
1h
0e
0b
0V!
0S!
1i
1f
0c
0T!
1O!
1~!
0g
1d
1a
1Y!
1V!
0l
0i
0W!
1T!
0j
1g
0d
0\!
0Y!
1l
0Z!
1W!
1m
1j
1\!
1]!
1Z!
0m
0]!
#560000
0!
0S
0T
#570000
1!
1S
1T
1P!
1b
1!"
1%
1c
1Q!
0O!
0a
1""
1d
#580000
0!
0S
0T
#590000
1!
1S
1T
13"
1R!
0P!
1e
0b
1("
12
0f
0c
1O!
0d
1a
1i
1f
0g
1d
0l
0i
0j
1g
1l
1m
1j
0m
#600000
0!
0S
0T
#610000
1!
1S
1T
1P!
1b
1S!
1c
0Q!
0O!
0a
0V!
0f
0T!
0d
1Y!
1i
0W!
0g
0\!
0l
0Z!
0j
1]!
1m
#620000
0!
0S
0T
#630000
1!
1S
1T
1^!
0[!
0X!
0U!
0R!
0P!
1n
0k
0h
0e
0b
1_!
1\!
0Y!
1V!
0S!
1l
0i
1f
0c
0]!
1Z!
1W!
1T!
1O!
1o
0m
1j
0~!
1g
1d
1a
0_!
1`!
1]!
0Z!
0W!
0T!
1m
0j
0g
0d
0`!
#640000
0!
0S
0T
#650000
1!
1S
1T
1P!
18"
1b
0!"
0%
1c
1Q!
0O!
1q
1p
0a
0""
1=
1d
19!
15!
#660000
0!
0S
0T
#670000
1!
1S
1T
03"
1R!
0P!
1:!
16!
17"
1e
0b
0("
02
1v!
1t!
0f
0c
1O!
1;!
07!
0q
0d
1a
0=
1f
1u!
1g
1d
0g
#680000
0!
0S
0T
#690000
1!
1S
1T
1P!
1<!
08!
1b
1/"
1,
1S!
1c
0Q!
0O!
0a
0f
1T!
0d
1g
#700000
0!
0S
0T
#710000
1!
1S
1T
1U!
0R!
0P!
1h
0e
0b
0V!
0S!
1i
1f
0c
0T!
1O!
1~!
0g
1d
1a
1V!
0i
1W!
1T!
1j
1g
0d
0W!
0j
#720000
0!
0S
0T
#730000
1!
1S
1T
1P!
1b
1!"
1%
1c
1Q!
0O!
0a
1""
1d
#740000
0!
0S
0T
#750000
1!
1S
1T
13"
1R!
0P!
1e
0b
1("
12
0f
0c
1O!
0d
1a
1i
1f
0g
1d
0i
1j
1g
0j
#760000
0!
0S
0T
#770000
1!
1S
1T
1P!
1b
1S!
1c
0Q!
0O!
0a
0V!
0f
0T!
0d
1i
1W!
0g
1j
#780000
0!
0S
0T
#790000
1!
1S
1T
1X!
0U!
0R!
0P!
1k
0h
0e
0b
1Y!
1V!
0S!
0l
0i
1f
0c
0W!
1T!
1O!
0j
0~!
1g
1d
1a
0Y!
1l
1Z!
1W!
0T!
0m
1j
0g
0d
0Z!
1m
#800000
0!
0S
0T
#810000
1!
1S
1T
1P!
1b
0!"
0%
1c
1Q!
0O!
0a
0""
1d
#820000
0!
0S
0T
#830000
1!
1S
1T
03"
1R!
0P!
1e
0b
0("
02
0f
0c
1O!
0d
1a
1f
1g
1d
0g
#840000
0!
0S
0T
#850000
1!
1S
1T
1P!
1b
1S!
1c
0Q!
0O!
0a
0f
1T!
0d
1g
#860000
0!
0S
0T
#870000
1!
1S
1T
1U!
0R!
0P!
1h
0e
0b
0V!
0S!
1i
1f
0c
0T!
1O!
1~!
0g
1d
1a
1Y!
1V!
0l
0i
0W!
1T!
0j
1g
0d
0Y!
1l
1Z!
1W!
0m
1j
0Z!
1m
#880000
0!
0S
0T
#890000
1!
1S
1T
1P!
1b
1!"
1%
1c
1Q!
0O!
0a
1""
1d
#900000
0!
0S
0T
#910000
1!
1S
1T
13"
1R!
0P!
1e
0b
1("
12
0f
0c
1O!
0d
1a
1i
1f
0g
1d
0l
0i
0j
1g
1l
0m
1j
1m
#920000
0!
0S
0T
#930000
1!
1S
1T
1P!
1b
1S!
1c
0Q!
0O!
0a
0V!
0f
0T!
0d
1Y!
1i
0W!
0g
0l
1Z!
0j
0m
#940000
0!
0S
0T
#950000
1!
1S
1T
1[!
0X!
0U!
0R!
0P!
0n
0k
0h
0e
0b
0\!
0Y!
1V!
0S!
1l
0i
1f
0c
0Z!
1W!
1T!
1O!
0o
1m
1j
0~!
1g
1d
1a
1_!
1\!
0]!
1Z!
0W!
0T!
0m
0j
0g
0d
0_!
1`!
1]!
0`!
#960000
0!
0S
0T
#970000
1!
1S
1T
1P!
08"
1b
0!"
0%
1c
1Q!
0O!
0p
0a
0""
1d
#980000
0!
0S
0T
#990000
1!
1S
1T
03"
1R!
0P!
07"
1e
0b
0("
02
0f
0c
1O!
0d
1a
1f
1g
1d
0g
#1000000
0!
0S
0T
#1010000
1!
1S
1T
1P!
1b
1S!
1c
0Q!
0O!
0a
0f
1T!
0d
1g
#1020000
0!
0S
0T
#1030000
1!
1S
1T
1U!
0R!
0P!
1h
0e
0b
0V!
0S!
1i
1f
0c
0T!
1O!
1~!
0g
1d
1a
1V!
0i
1W!
1T!
1j
1g
0d
0W!
0j
#1040000
0!
0S
0T
#1050000
1!
1S
1T
1P!
1b
1!"
1%
1c
1Q!
0O!
0a
1""
1d
#1060000
0!
0S
0T
#1070000
1!
1S
1T
13"
1R!
0P!
1e
0b
1("
12
0f
0c
1O!
0d
1a
1i
1f
0g
1d
0i
1j
1g
0j
#1080000
0!
0S
0T
#1090000
1!
1S
1T
1P!
1b
1S!
1c
0Q!
0O!
0a
0V!
0f
0T!
0d
1i
1W!
0g
1j
#1100000
0!
0S
0T
#1110000
1!
1S
1T
1X!
0U!
0R!
0P!
1k
0h
0e
0b
1Y!
1V!
0S!
0l
0i
1f
0c
0W!
1T!
1O!
0j
0~!
1g
1d
1a
0\!
0Y!
1l
0Z!
1W!
0T!
1m
1j
0g
0d
1_!
1\!
0]!
1Z!
0m
0_!
1`!
1]!
0`!
#1120000
0!
0S
0T
#1130000
1!
1S
1T
1P!
1b
0!"
0%
1c
1Q!
0O!
0a
0""
1d
#1140000
0!
0S
0T
#1150000
1!
1S
1T
03"
1R!
0P!
1e
0b
0("
02
0f
0c
1O!
0d
1a
1f
1g
1d
0g
#1160000
0!
0S
0T
#1170000
1!
1S
1T
1P!
1b
1S!
1c
0Q!
0O!
0a
0f
1T!
0d
1g
#1180000
0!
0S
0T
#1190000
1!
1S
1T
1U!
0R!
0P!
1h
0e
0b
0V!
0S!
1i
1f
0c
0T!
1O!
1~!
0g
1d
1a
1Y!
1V!
0l
0i
0W!
1T!
0j
1g
0d
0\!
0Y!
1l
0Z!
1W!
1m
1j
1_!
1\!
0]!
1Z!
0m
0_!
1`!
1]!
0`!
#1200000
0!
0S
0T
#1210000
1!
1S
1T
1P!
1b
1!"
1%
1c
1Q!
0O!
0a
1""
1d
#1220000
0!
0S
0T
#1230000
1!
1S
1T
13"
1R!
0P!
1e
0b
1("
12
0f
0c
1O!
0d
1a
1i
1f
0g
1d
0l
0i
0j
1g
1l
1m
1j
0m
#1240000
0!
0S
0T
#1250000
1!
1S
1T
1P!
1b
1S!
1c
0Q!
0O!
0a
0V!
0f
0T!
0d
1Y!
1i
0W!
0g
0\!
0l
0Z!
0j
1_!
0]!
1m
1`!
#1260000
0!
0S
0T
#1270000
1!
1S
1T
1a!
0^!
0[!
0X!
0U!
0R!
0P!
1n
0k
0h
0e
0b
0b!
0_!
1\!
0Y!
1V!
0S!
1l
0i
1f
0c
0`!
1]!
1Z!
1W!
1T!
1O!
1o
0m
1j
0~!
1g
1d
1a
1b!
1c!
1`!
0]!
0Z!
0W!
0T!
1m
0j
0g
0d
0c!
#1280000
0!
0S
0T
#1290000
1!
1S
1T
1P!
18"
1b
0!"
0%
1c
1Q!
0O!
1q
1p
0a
0""
1=
1d
1=!
09!
#1300000
0!
0S
0T
#1310000
1!
1S
1T
03"
1R!
0P!
0:!
17"
1e
0b
0("
1>!
02
0v!
1H!
0f
0c
1s!
1O!
0;!
0q
0d
1a
1o!
0=
1f
1w!
1g
1d
0u!
1""
0g
#1320000
0!
0S
0T
#1330000
1!
1S
1T
13"
1P!
1?!
0<!
1b
1("
1."
0/"
1p!
10
0,
1+
12
1S!
1c
0Q!
0O!
0a
0f
1T!
0d
1g
#1340000
0!
0S
0T
#1350000
1!
1S
1T
1U!
0R!
0P!
1h
0e
0b
0V!
0S!
1i
1f
0c
0T!
1O!
1~!
0g
1d
1a
1V!
0i
1W!
1T!
1j
1g
0d
0W!
0j
#1360000
0!
0S
0T
#1370000
1!
1S
1T
1P!
1b
1!"
1%
1c
1Q!
0O!
0a
1d
#1380000
0!
0S
0T
#1390000
1!
1S
1T
1R!
0P!
1e
0b
0f
0c
1O!
0d
1a
1i
1f
0g
1d
0i
1j
1g
0j
#1400000
0!
0S
0T
#1410000
1!
1S
1T
1P!
1b
1S!
1c
0Q!
0O!
0a
0V!
0f
0T!
0d
1i
1W!
0g
1j
#1420000
0!
0S
0T
#1430000
1!
1S
1T
1X!
0U!
0R!
0P!
1k
0h
0e
0b
1Y!
1V!
0S!
0l
0i
1f
0c
0W!
1T!
1O!
0j
0~!
1g
1d
1a
0Y!
1l
1Z!
1W!
0T!
0m
1j
0g
0d
0Z!
1m
#1440000
0!
0S
0T
#1450000
1!
1S
1T
1P!
1b
0!"
0%
1c
1Q!
0O!
0a
1d
#1460000
0!
0S
0T
#1470000
1!
1S
1T
1R!
0P!
1e
0b
0f
0c
1O!
0d
1a
1f
1g
1d
0g
#1480000
0!
0S
0T
#1490000
1!
1S
1T
1P!
1b
1S!
1c
0Q!
0O!
0a
0f
1T!
0d
1g
#1500000
0!
0S
0T
#1510000
1!
1S
1T
1U!
0R!
0P!
1h
0e
0b
0V!
0S!
1i
1f
0c
0T!
1O!
1~!
0g
1d
1a
1Y!
1V!
0l
0i
0W!
1T!
0j
1g
0d
0Y!
1l
1Z!
1W!
0m
1j
0Z!
1m
#1520000
0!
0S
0T
#1530000
1!
1S
1T
1P!
1b
1!"
1%
1c
1Q!
0O!
0a
1d
#1540000
0!
0S
0T
#1550000
1!
1S
1T
1R!
0P!
1e
0b
0f
0c
1O!
0d
1a
1i
1f
0g
1d
0l
0i
0j
1g
1l
0m
1j
1m
#1560000
0!
0S
0T
#1570000
1!
1S
1T
1P!
1b
1S!
1c
0Q!
0O!
0a
0V!
0f
0T!
0d
1Y!
1i
0W!
0g
0l
1Z!
0j
0m
#1580000
0!
0S
0T
#1590000
1!
1S
1T
1[!
0X!
0U!
0R!
0P!
0n
0k
0h
0e
0b
0\!
0Y!
1V!
0S!
1l
0i
1f
0c
0Z!
1W!
1T!
1O!
0o
1m
1j
0~!
1g
1d
1a
1\!
1]!
1Z!
0W!
0T!
0m
0j
0g
0d
0]!
#1600000
0!
0S
0T
#1610000
1!
1S
1T
1P!
08"
1b
0!"
0%
1c
1Q!
0O!
0p
0a
1d
#1620000
0!
0S
0T
#1630000
1!
1S
1T
1R!
0P!
07"
1e
0b
0f
0c
1O!
0d
1a
1f
1g
1d
0g
#1640000
0!
0S
0T
#1650000
1!
1S
1T
1P!
1b
1S!
1c
0Q!
0O!
0a
0f
1T!
0d
1g
#1660000
0!
0S
0T
#1670000
1!
1S
1T
1U!
0R!
0P!
1h
0e
0b
0V!
0S!
1i
1f
0c
0T!
1O!
1~!
0g
1d
1a
1V!
0i
1W!
1T!
1j
1g
0d
0W!
0j
#1680000
0!
0S
0T
#1690000
1!
1S
1T
1P!
1b
1!"
1%
1c
1Q!
0O!
0a
1d
#1700000
0!
0S
0T
#1710000
1!
1S
1T
1R!
0P!
1e
0b
0f
0c
1O!
0d
1a
1i
1f
0g
1d
0i
1j
1g
0j
#1720000
0!
0S
0T
#1730000
1!
1S
1T
1P!
1b
1S!
1c
0Q!
0O!
0a
0V!
0f
0T!
0d
1i
1W!
0g
1j
#1740000
0!
0S
0T
#1750000
1!
1S
1T
1X!
0U!
0R!
0P!
1k
0h
0e
0b
1Y!
1V!
0S!
0l
0i
1f
0c
0W!
1T!
1O!
0j
0~!
1g
1d
1a
0\!
0Y!
1l
0Z!
1W!
0T!
1m
1j
0g
0d
1\!
1]!
1Z!
0m
0]!
#1760000
0!
0S
0T
#1770000
1!
1S
1T
1P!
1b
0!"
0%
1c
1Q!
0O!
0a
1d
#1780000
0!
0S
0T
#1790000
1!
1S
1T
1R!
0P!
1e
0b
0f
0c
1O!
0d
1a
1f
1g
1d
0g
#1800000
0!
0S
0T
#1810000
1!
1S
1T
1P!
1b
1S!
1c
0Q!
0O!
0a
0f
1T!
0d
1g
#1820000
0!
0S
0T
#1830000
1!
1S
1T
1U!
0R!
0P!
1h
0e
0b
0V!
0S!
1i
1f
0c
0T!
1O!
1~!
0g
1d
1a
1Y!
1V!
0l
0i
0W!
1T!
0j
1g
0d
0\!
0Y!
1l
0Z!
1W!
1m
1j
1\!
1]!
1Z!
0m
0]!
#1840000
0!
0S
0T
#1850000
1!
1S
1T
1P!
1b
1!"
1%
1c
1Q!
0O!
0a
1d
#1860000
0!
0S
0T
#1870000
1!
1S
1T
1R!
0P!
1e
0b
0f
0c
1O!
0d
1a
1i
1f
0g
1d
0l
0i
0j
1g
1l
1m
1j
0m
#1880000
0!
0S
0T
#1890000
1!
1S
1T
1P!
1b
1S!
1c
0Q!
0O!
0a
0V!
0f
0T!
0d
1Y!
1i
0W!
0g
0\!
0l
0Z!
0j
1]!
1m
#1900000
0!
0S
0T
